<?xml version="1.0" encoding="UTF-8" standalone="no"?>
<!-- Created with Inkscape (http://www.inkscape.org/) -->

<svg
   xmlns:dc="http://purl.org/dc/elements/1.1/"
   xmlns:cc="http://creativecommons.org/ns#"
   xmlns:rdf="http://www.w3.org/1999/02/22-rdf-syntax-ns#"
   xmlns:svg="http://www.w3.org/2000/svg"
   xmlns="http://www.w3.org/2000/svg"
   xmlns:xlink="http://www.w3.org/1999/xlink"
   xmlns:sodipodi="http://sodipodi.sourceforge.net/DTD/sodipodi-0.dtd"
   xmlns:inkscape="http://www.inkscape.org/namespaces/inkscape"
   width="32"
   height="32"
   id="svg2"
   version="1.1"
   inkscape:version="0.91 r13725"
   sodipodi:docname="Ubuntu_MATE_logo.svg"
   inkscape:export-filename="/home/alfredo/ubuntu-gnome-design.png"
   inkscape:export-xdpi="90"
   inkscape:export-ydpi="90">
  <defs
     id="defs4">
    <linearGradient
       y2="382.5"
       x2="990"
       y1="382.5"
       x1="601.20001"
       gradientTransform="matrix(-0.511281,0,0,0.42455,1578.612,-1.981893e-7)"
       gradientUnits="userSpaceOnUse"
       id="linearGradient63059"
       xlink:href="#linearGradient7336"
       inkscape:collect="always" />
    <linearGradient
       y2="360"
       x2="990"
       y1="360"
       x1="380.92273"
       gradientTransform="matrix(-0.501192,0,0,0.42455,1568.625,-1.981893e-7)"
       gradientUnits="userSpaceOnUse"
       id="linearGradient63057"
       xlink:href="#linearGradient8221"
       inkscape:collect="always" />
    <linearGradient
       id="linearGradient7336">
      <stop
         id="stop7338"
         offset="0"
         style="stop-color:#ffffff;stop-opacity:1;" />
      <stop
         id="stop7340"
         offset="1"
         style="stop-color:#6fc1ff;stop-opacity:0;" />
    </linearGradient>
    <linearGradient
       id="linearGradient8221">
      <stop
         id="stop8223"
         offset="0"
         style="stop-color:#6fc1ff;stop-opacity:1;" />
      <stop
         id="stop8225"
         offset="1"
         style="stop-color:#6fc1ff;stop-opacity:0;" />
    </linearGradient>
    <linearGradient
       id="linearGradient57798">
      <stop
         id="stop57800"
         offset="0"
         style="stop-color:#ababab;stop-opacity:1;" />
      <stop
         id="stop57802"
         offset="1"
         style="stop-color:#000000;stop-opacity:0;" />
    </linearGradient>
    <linearGradient
       id="linearGradient57806">
      <stop
         style="stop-color:#ffffff;stop-opacity:1;"
         offset="0"
         id="stop57808" />
      <stop
         style="stop-color:#96bcd8;stop-opacity:0"
         offset="1"
         id="stop57810" />
    </linearGradient>
    <linearGradient
       id="linearGradient58210">
      <stop
         id="stop58212"
         offset="0"
         style="stop-color:#30a5ff;stop-opacity:1;" />
      <stop
         id="stop58214"
         offset="1"
         style="stop-color:#a6d9ff;stop-opacity:1;" />
    </linearGradient>
    <linearGradient
       id="linearGradient22774">
      <stop
         id="stop22776"
         offset="0"
         style="stop-color:#dd9144;stop-opacity:1;" />
      <stop
         style="stop-color:#b06f2e;stop-opacity:1;"
         offset="0"
         id="stop22784" />
      <stop
         style="stop-color:#633406;stop-opacity:1;"
         offset="1"
         id="stop22782" />
    </linearGradient>
    <linearGradient
       id="linearGradient22786">
      <stop
         id="stop22788"
         offset="0"
         style="stop-color:#737373;stop-opacity:1;" />
      <stop
         id="stop22790"
         offset="1"
         style="stop-color:#cdcdcd;stop-opacity:1;" />
    </linearGradient>
    <linearGradient
       id="linearGradient24542">
      <stop
         id="stop24544"
         offset="0"
         style="stop-color:#7c7c7c;stop-opacity:1;" />
      <stop
         id="stop24546"
         offset="1"
         style="stop-color:#323232;stop-opacity:1;" />
    </linearGradient>
    <linearGradient
       id="linearGradient30914">
      <stop
         id="stop30916"
         offset="0"
         style="stop-color:#545f00;stop-opacity:1;" />
      <stop
         id="stop30918"
         offset="1"
         style="stop-color:#000000;stop-opacity:1;" />
    </linearGradient>
    <linearGradient
       id="linearGradient30922">
      <stop
         id="stop30924"
         offset="0"
         style="stop-color:#323232;stop-opacity:1;" />
      <stop
         id="stop30926"
         offset="1"
         style="stop-color:#ffffff;stop-opacity:1;" />
    </linearGradient>
    <linearGradient
       id="linearGradient30930">
      <stop
         id="stop30932"
         offset="0"
         style="stop-color:#7c7c7c;stop-opacity:1;" />
      <stop
         id="stop30934"
         offset="1"
         style="stop-color:#ffffff;stop-opacity:1;" />
    </linearGradient>
    <linearGradient
       id="linearGradient30944">
      <stop
         id="stop30946"
         offset="0"
         style="stop-color:#ffffff;stop-opacity:1;" />
      <stop
         id="stop30948"
         offset="1"
         style="stop-color:#7e7e7e;stop-opacity:1;" />
    </linearGradient>
    <linearGradient
       id="linearGradient6016">
      <stop
         id="stop6018"
         offset="0"
         style="stop-color:#265ba7;stop-opacity:1;" />
      <stop
         id="stop6020"
         offset="1"
         style="stop-color:#1c4177;stop-opacity:1;" />
    </linearGradient>
    <inkscape:perspective
       sodipodi:type="inkscape:persp3d"
       inkscape:vp_x="0 : 0.5 : 1"
       inkscape:vp_y="0 : 1000 : 0"
       inkscape:vp_z="1 : 0.5 : 1"
       inkscape:persp3d-origin="0.5 : 0.33333333 : 1"
       id="perspective2861" />
    <inkscape:perspective
       sodipodi:type="inkscape:persp3d"
       inkscape:vp_x="0 : 0.5 : 1"
       inkscape:vp_y="0 : 1000 : 0"
       inkscape:vp_z="1 : 0.5 : 1"
       inkscape:persp3d-origin="0.5 : 0.33333333 : 1"
       id="perspective3415" />
    <inkscape:perspective
       sodipodi:type="inkscape:persp3d"
       inkscape:vp_x="0 : 0.5 : 1"
       inkscape:vp_y="0 : 1000 : 0"
       inkscape:vp_z="1 : 0.5 : 1"
       inkscape:persp3d-origin="0.5 : 0.33333333 : 1"
       id="perspective3135" />
    <inkscape:perspective
       id="perspective29"
       inkscape:persp3d-origin="389.8085 : 56.692998 : 1"
       inkscape:vp_z="779.617 : 85.039497 : 1"
       inkscape:vp_y="0 : 1000 : 0"
       inkscape:vp_x="0 : 85.039497 : 1"
       sodipodi:type="inkscape:persp3d" />
    <linearGradient
       y2="382.5"
       x2="990"
       y1="382.5"
       x1="601.20001"
       gradientTransform="matrix(-0.511281,0,0,0.42455,1578.612,-1.981893e-7)"
       gradientUnits="userSpaceOnUse"
       id="linearGradient63059-9"
       xlink:href="#linearGradient7336-3"
       inkscape:collect="always" />
    <linearGradient
       y2="360"
       x2="990"
       y1="360"
       x1="380.92273"
       gradientTransform="matrix(-0.501192,0,0,0.42455,1568.625,-1.981893e-7)"
       gradientUnits="userSpaceOnUse"
       id="linearGradient63057-9"
       xlink:href="#linearGradient8221-3"
       inkscape:collect="always" />
    <linearGradient
       id="linearGradient7336-3">
      <stop
         id="stop7338-4"
         offset="0"
         style="stop-color:#ffffff;stop-opacity:1;" />
      <stop
         id="stop7340-5"
         offset="1"
         style="stop-color:#6fc1ff;stop-opacity:0;" />
    </linearGradient>
    <linearGradient
       id="linearGradient8221-3">
      <stop
         id="stop8223-8"
         offset="0"
         style="stop-color:#6fc1ff;stop-opacity:1;" />
      <stop
         id="stop8225-1"
         offset="1"
         style="stop-color:#6fc1ff;stop-opacity:0;" />
    </linearGradient>
    <linearGradient
       id="linearGradient57798-0">
      <stop
         id="stop57800-9"
         offset="0"
         style="stop-color:#ababab;stop-opacity:1;" />
      <stop
         id="stop57802-0"
         offset="1"
         style="stop-color:#000000;stop-opacity:0;" />
    </linearGradient>
    <linearGradient
       id="linearGradient57806-9">
      <stop
         style="stop-color:#ffffff;stop-opacity:1;"
         offset="0"
         id="stop57808-2" />
      <stop
         style="stop-color:#96bcd8;stop-opacity:0"
         offset="1"
         id="stop57810-4" />
    </linearGradient>
    <linearGradient
       id="linearGradient58210-2">
      <stop
         id="stop58212-6"
         offset="0"
         style="stop-color:#30a5ff;stop-opacity:1;" />
      <stop
         id="stop58214-1"
         offset="1"
         style="stop-color:#a6d9ff;stop-opacity:1;" />
    </linearGradient>
    <linearGradient
       id="linearGradient22774-6">
      <stop
         id="stop22776-6"
         offset="0"
         style="stop-color:#dd9144;stop-opacity:1;" />
      <stop
         style="stop-color:#b06f2e;stop-opacity:1;"
         offset="0"
         id="stop22784-0" />
      <stop
         style="stop-color:#633406;stop-opacity:1;"
         offset="1"
         id="stop22782-7" />
    </linearGradient>
    <linearGradient
       id="linearGradient22786-5">
      <stop
         id="stop22788-8"
         offset="0"
         style="stop-color:#737373;stop-opacity:1;" />
      <stop
         id="stop22790-8"
         offset="1"
         style="stop-color:#cdcdcd;stop-opacity:1;" />
    </linearGradient>
    <linearGradient
       id="linearGradient24542-5">
      <stop
         id="stop24544-6"
         offset="0"
         style="stop-color:#7c7c7c;stop-opacity:1;" />
      <stop
         id="stop24546-8"
         offset="1"
         style="stop-color:#323232;stop-opacity:1;" />
    </linearGradient>
    <linearGradient
       id="linearGradient30914-1">
      <stop
         id="stop30916-1"
         offset="0"
         style="stop-color:#545f00;stop-opacity:1;" />
      <stop
         id="stop30918-7"
         offset="1"
         style="stop-color:#000000;stop-opacity:1;" />
    </linearGradient>
    <linearGradient
       id="linearGradient30922-5">
      <stop
         id="stop30924-3"
         offset="0"
         style="stop-color:#323232;stop-opacity:1;" />
      <stop
         id="stop30926-0"
         offset="1"
         style="stop-color:#ffffff;stop-opacity:1;" />
    </linearGradient>
    <linearGradient
       id="linearGradient30930-0">
      <stop
         id="stop30932-5"
         offset="0"
         style="stop-color:#7c7c7c;stop-opacity:1;" />
      <stop
         id="stop30934-2"
         offset="1"
         style="stop-color:#ffffff;stop-opacity:1;" />
    </linearGradient>
    <linearGradient
       id="linearGradient30944-3">
      <stop
         id="stop30946-9"
         offset="0"
         style="stop-color:#ffffff;stop-opacity:1;" />
      <stop
         id="stop30948-1"
         offset="1"
         style="stop-color:#7e7e7e;stop-opacity:1;" />
    </linearGradient>
    <linearGradient
       id="linearGradient6016-8">
      <stop
         id="stop6018-7"
         offset="0"
         style="stop-color:#265ba7;stop-opacity:1;" />
      <stop
         id="stop6020-3"
         offset="1"
         style="stop-color:#1c4177;stop-opacity:1;" />
    </linearGradient>
    <linearGradient
       id="linearGradient6016-8-8">
      <stop
         style="stop-color:#265ba7;stop-opacity:1;"
         offset="0"
         id="stop6018-7-0" />
      <stop
         style="stop-color:#1c4177;stop-opacity:1;"
         offset="1"
         id="stop6020-3-2" />
    </linearGradient>
    <linearGradient
       id="linearGradient30944-3-4">
      <stop
         style="stop-color:#ffffff;stop-opacity:1;"
         offset="0"
         id="stop30946-9-6" />
      <stop
         style="stop-color:#7e7e7e;stop-opacity:1;"
         offset="1"
         id="stop30948-1-3" />
    </linearGradient>
    <linearGradient
       id="linearGradient30930-0-3">
      <stop
         style="stop-color:#7c7c7c;stop-opacity:1;"
         offset="0"
         id="stop30932-5-8" />
      <stop
         style="stop-color:#ffffff;stop-opacity:1;"
         offset="1"
         id="stop30934-2-7" />
    </linearGradient>
    <linearGradient
       id="linearGradient30922-5-3">
      <stop
         style="stop-color:#323232;stop-opacity:1;"
         offset="0"
         id="stop30924-3-0" />
      <stop
         style="stop-color:#ffffff;stop-opacity:1;"
         offset="1"
         id="stop30926-0-7" />
    </linearGradient>
    <linearGradient
       id="linearGradient30914-1-4">
      <stop
         style="stop-color:#545f00;stop-opacity:1;"
         offset="0"
         id="stop30916-1-9" />
      <stop
         style="stop-color:#000000;stop-opacity:1;"
         offset="1"
         id="stop30918-7-8" />
    </linearGradient>
    <linearGradient
       id="linearGradient24542-5-8">
      <stop
         style="stop-color:#7c7c7c;stop-opacity:1;"
         offset="0"
         id="stop24544-6-2" />
      <stop
         style="stop-color:#323232;stop-opacity:1;"
         offset="1"
         id="stop24546-8-5" />
    </linearGradient>
    <linearGradient
       id="linearGradient22786-5-2">
      <stop
         style="stop-color:#737373;stop-opacity:1;"
         offset="0"
         id="stop22788-8-9" />
      <stop
         style="stop-color:#cdcdcd;stop-opacity:1;"
         offset="1"
         id="stop22790-8-9" />
    </linearGradient>
    <linearGradient
       id="linearGradient22774-6-4">
      <stop
         style="stop-color:#dd9144;stop-opacity:1;"
         offset="0"
         id="stop22776-6-5" />
      <stop
         id="stop22784-0-9"
         offset="0"
         style="stop-color:#b06f2e;stop-opacity:1;" />
      <stop
         id="stop22782-7-7"
         offset="1"
         style="stop-color:#633406;stop-opacity:1;" />
    </linearGradient>
    <linearGradient
       id="linearGradient58210-2-5">
      <stop
         style="stop-color:#30a5ff;stop-opacity:1;"
         offset="0"
         id="stop58212-6-7" />
      <stop
         style="stop-color:#a6d9ff;stop-opacity:1;"
         offset="1"
         id="stop58214-1-3" />
    </linearGradient>
    <linearGradient
       id="linearGradient57806-9-5">
      <stop
         id="stop57808-2-3"
         offset="0"
         style="stop-color:#ffffff;stop-opacity:1;" />
      <stop
         id="stop57810-4-2"
         offset="1"
         style="stop-color:#96bcd8;stop-opacity:0" />
    </linearGradient>
    <linearGradient
       id="linearGradient57798-0-2">
      <stop
         style="stop-color:#ababab;stop-opacity:1;"
         offset="0"
         id="stop57800-9-2" />
      <stop
         style="stop-color:#000000;stop-opacity:0;"
         offset="1"
         id="stop57802-0-7" />
    </linearGradient>
    <linearGradient
       id="linearGradient8221-3-1">
      <stop
         style="stop-color:#6fc1ff;stop-opacity:1;"
         offset="0"
         id="stop8223-8-6" />
      <stop
         style="stop-color:#6fc1ff;stop-opacity:0;"
         offset="1"
         id="stop8225-1-6" />
    </linearGradient>
    <linearGradient
       id="linearGradient7336-3-8">
      <stop
         style="stop-color:#ffffff;stop-opacity:1;"
         offset="0"
         id="stop7338-4-7" />
      <stop
         style="stop-color:#6fc1ff;stop-opacity:0;"
         offset="1"
         id="stop7340-5-9" />
    </linearGradient>
    <linearGradient
       inkscape:collect="always"
       xlink:href="#linearGradient8221-3-1"
       id="linearGradient63057-9-7"
       gradientUnits="userSpaceOnUse"
       gradientTransform="matrix(-0.501192,0,0,0.42455,1568.625,-1.981893e-7)"
       x1="380.92273"
       y1="360"
       x2="990"
       y2="360" />
    <linearGradient
       inkscape:collect="always"
       xlink:href="#linearGradient7336-3-8"
       id="linearGradient63059-9-1"
       gradientUnits="userSpaceOnUse"
       gradientTransform="matrix(-0.511281,0,0,0.42455,1578.612,-1.981893e-7)"
       x1="601.20001"
       y1="382.5"
       x2="990"
       y2="382.5" />
    <inkscape:perspective
       sodipodi:type="inkscape:persp3d"
       inkscape:vp_x="0 : 85.039497 : 1"
       inkscape:vp_y="0 : 1000 : 0"
       inkscape:vp_z="779.617 : 85.039497 : 1"
       inkscape:persp3d-origin="389.8085 : 56.692998 : 1"
       id="perspective29-6" />
    <inkscape:perspective
       id="perspective3135-3"
       inkscape:persp3d-origin="0.5 : 0.33333333 : 1"
       inkscape:vp_z="1 : 0.5 : 1"
       inkscape:vp_y="0 : 1000 : 0"
       inkscape:vp_x="0 : 0.5 : 1"
       sodipodi:type="inkscape:persp3d" />
    <inkscape:perspective
       id="perspective3415-6"
       inkscape:persp3d-origin="0.5 : 0.33333333 : 1"
       inkscape:vp_z="1 : 0.5 : 1"
       inkscape:vp_y="0 : 1000 : 0"
       inkscape:vp_x="0 : 0.5 : 1"
       sodipodi:type="inkscape:persp3d" />
    <inkscape:perspective
       id="perspective2861-4"
       inkscape:persp3d-origin="0.5 : 0.33333333 : 1"
       inkscape:vp_z="1 : 0.5 : 1"
       inkscape:vp_y="0 : 1000 : 0"
       inkscape:vp_x="0 : 0.5 : 1"
       sodipodi:type="inkscape:persp3d" />
    <linearGradient
       id="linearGradient6016-3">
      <stop
         style="stop-color:#265ba7;stop-opacity:1;"
         offset="0"
         id="stop6018-1" />
      <stop
         style="stop-color:#1c4177;stop-opacity:1;"
         offset="1"
         id="stop6020-4" />
    </linearGradient>
    <linearGradient
       id="linearGradient30944-7">
      <stop
         style="stop-color:#ffffff;stop-opacity:1;"
         offset="0"
         id="stop30946-0" />
      <stop
         style="stop-color:#7e7e7e;stop-opacity:1;"
         offset="1"
         id="stop30948-2" />
    </linearGradient>
    <linearGradient
       id="linearGradient30930-8">
      <stop
         style="stop-color:#7c7c7c;stop-opacity:1;"
         offset="0"
         id="stop30932-6" />
      <stop
         style="stop-color:#ffffff;stop-opacity:1;"
         offset="1"
         id="stop30934-3" />
    </linearGradient>
    <linearGradient
       id="linearGradient30922-2">
      <stop
         style="stop-color:#323232;stop-opacity:1;"
         offset="0"
         id="stop30924-0" />
      <stop
         style="stop-color:#ffffff;stop-opacity:1;"
         offset="1"
         id="stop30926-7" />
    </linearGradient>
    <linearGradient
       id="linearGradient30914-8">
      <stop
         style="stop-color:#545f00;stop-opacity:1;"
         offset="0"
         id="stop30916-3" />
      <stop
         style="stop-color:#000000;stop-opacity:1;"
         offset="1"
         id="stop30918-9" />
    </linearGradient>
    <linearGradient
       id="linearGradient24542-4">
      <stop
         style="stop-color:#7c7c7c;stop-opacity:1;"
         offset="0"
         id="stop24544-1" />
      <stop
         style="stop-color:#323232;stop-opacity:1;"
         offset="1"
         id="stop24546-1" />
    </linearGradient>
    <linearGradient
       id="linearGradient22786-1">
      <stop
         style="stop-color:#737373;stop-opacity:1;"
         offset="0"
         id="stop22788-86" />
      <stop
         style="stop-color:#cdcdcd;stop-opacity:1;"
         offset="1"
         id="stop22790-1" />
    </linearGradient>
    <linearGradient
       id="linearGradient22774-4">
      <stop
         style="stop-color:#dd9144;stop-opacity:1;"
         offset="0"
         id="stop22776-9" />
      <stop
         id="stop22784-6"
         offset="0"
         style="stop-color:#b06f2e;stop-opacity:1;" />
      <stop
         id="stop22782-0"
         offset="1"
         style="stop-color:#633406;stop-opacity:1;" />
    </linearGradient>
    <linearGradient
       id="linearGradient58210-7">
      <stop
         style="stop-color:#30a5ff;stop-opacity:1;"
         offset="0"
         id="stop58212-0" />
      <stop
         style="stop-color:#a6d9ff;stop-opacity:1;"
         offset="1"
         id="stop58214-5" />
    </linearGradient>
    <linearGradient
       id="linearGradient57806-92">
      <stop
         id="stop57808-1"
         offset="0"
         style="stop-color:#ffffff;stop-opacity:1;" />
      <stop
         id="stop57810-3"
         offset="1"
         style="stop-color:#96bcd8;stop-opacity:0" />
    </linearGradient>
    <linearGradient
       id="linearGradient57798-3">
      <stop
         style="stop-color:#ababab;stop-opacity:1;"
         offset="0"
         id="stop57800-8" />
      <stop
         style="stop-color:#000000;stop-opacity:0;"
         offset="1"
         id="stop57802-6" />
    </linearGradient>
    <linearGradient
       id="linearGradient8221-4">
      <stop
         style="stop-color:#6fc1ff;stop-opacity:1;"
         offset="0"
         id="stop8223-4" />
      <stop
         style="stop-color:#6fc1ff;stop-opacity:0;"
         offset="1"
         id="stop8225-7" />
    </linearGradient>
    <linearGradient
       id="linearGradient7336-5">
      <stop
         style="stop-color:#ffffff;stop-opacity:1;"
         offset="0"
         id="stop7338-7" />
      <stop
         style="stop-color:#6fc1ff;stop-opacity:0;"
         offset="1"
         id="stop7340-4" />
    </linearGradient>
    <linearGradient
       inkscape:collect="always"
       xlink:href="#linearGradient8221-4"
       id="linearGradient63057-3"
       gradientUnits="userSpaceOnUse"
       gradientTransform="matrix(-0.501192,0,0,0.42455,1568.625,-1.981893e-7)"
       x1="380.92273"
       y1="360"
       x2="990"
       y2="360" />
    <linearGradient
       inkscape:collect="always"
       xlink:href="#linearGradient7336-5"
       id="linearGradient63059-8"
       gradientUnits="userSpaceOnUse"
       gradientTransform="matrix(-0.511281,0,0,0.42455,1578.612,-1.981893e-7)"
       x1="601.20001"
       y1="382.5"
       x2="990"
       y2="382.5" />
    <clipPath
       clipPathUnits="userSpaceOnUse"
       id="clipPath3743">
      <rect
         style="color:#000000;display:inline;overflow:visible;visibility:visible;fill:#ffffff;fill-opacity:1;fill-rule:nonzero;stroke:none;stroke-width:1;marker:none;enable-background:accumulate"
         id="rect3745"
         width="456.79099"
         height="395.27271"
         x="-87.687256"
         y="820.19275" />
    </clipPath>
    <linearGradient
       y2="382.5"
       x2="990"
       y1="382.5"
       x1="601.20001"
       gradientTransform="matrix(-0.511281,0,0,0.42455,1578.612,-1.981893e-7)"
       gradientUnits="userSpaceOnUse"
       id="linearGradient63059-8-3"
       xlink:href="#linearGradient7336-5-8"
       inkscape:collect="always" />
    <linearGradient
       y2="360"
       x2="990"
       y1="360"
       x1="380.92273"
       gradientTransform="matrix(-0.501192,0,0,0.42455,1568.625,-1.981893e-7)"
       gradientUnits="userSpaceOnUse"
       id="linearGradient63057-3-4"
       xlink:href="#linearGradient8221-4-0"
       inkscape:collect="always" />
    <linearGradient
       id="linearGradient7336-5-8">
      <stop
         id="stop7338-7-9"
         offset="0"
         style="stop-color:#ffffff;stop-opacity:1;" />
      <stop
         id="stop7340-4-0"
         offset="1"
         style="stop-color:#6fc1ff;stop-opacity:0;" />
    </linearGradient>
    <linearGradient
       id="linearGradient8221-4-0">
      <stop
         id="stop8223-4-9"
         offset="0"
         style="stop-color:#6fc1ff;stop-opacity:1;" />
      <stop
         id="stop8225-7-4"
         offset="1"
         style="stop-color:#6fc1ff;stop-opacity:0;" />
    </linearGradient>
    <linearGradient
       id="linearGradient57798-3-3">
      <stop
         id="stop57800-8-7"
         offset="0"
         style="stop-color:#ababab;stop-opacity:1;" />
      <stop
         id="stop57802-6-1"
         offset="1"
         style="stop-color:#000000;stop-opacity:0;" />
    </linearGradient>
    <linearGradient
       id="linearGradient57806-92-9">
      <stop
         style="stop-color:#ffffff;stop-opacity:1;"
         offset="0"
         id="stop57808-1-2" />
      <stop
         style="stop-color:#96bcd8;stop-opacity:0"
         offset="1"
         id="stop57810-3-3" />
    </linearGradient>
    <linearGradient
       id="linearGradient58210-7-3">
      <stop
         id="stop58212-0-2"
         offset="0"
         style="stop-color:#30a5ff;stop-opacity:1;" />
      <stop
         id="stop58214-5-4"
         offset="1"
         style="stop-color:#a6d9ff;stop-opacity:1;" />
    </linearGradient>
    <linearGradient
       id="linearGradient22774-4-6">
      <stop
         id="stop22776-9-2"
         offset="0"
         style="stop-color:#dd9144;stop-opacity:1;" />
      <stop
         style="stop-color:#b06f2e;stop-opacity:1;"
         offset="0"
         id="stop22784-6-3" />
      <stop
         style="stop-color:#633406;stop-opacity:1;"
         offset="1"
         id="stop22782-0-2" />
    </linearGradient>
    <linearGradient
       id="linearGradient22786-1-9">
      <stop
         id="stop22788-86-0"
         offset="0"
         style="stop-color:#737373;stop-opacity:1;" />
      <stop
         id="stop22790-1-2"
         offset="1"
         style="stop-color:#cdcdcd;stop-opacity:1;" />
    </linearGradient>
    <linearGradient
       id="linearGradient24542-4-9">
      <stop
         id="stop24544-1-7"
         offset="0"
         style="stop-color:#7c7c7c;stop-opacity:1;" />
      <stop
         id="stop24546-1-3"
         offset="1"
         style="stop-color:#323232;stop-opacity:1;" />
    </linearGradient>
    <linearGradient
       id="linearGradient30914-8-2">
      <stop
         id="stop30916-3-1"
         offset="0"
         style="stop-color:#545f00;stop-opacity:1;" />
      <stop
         id="stop30918-9-8"
         offset="1"
         style="stop-color:#000000;stop-opacity:1;" />
    </linearGradient>
    <linearGradient
       id="linearGradient30922-2-6">
      <stop
         id="stop30924-0-4"
         offset="0"
         style="stop-color:#323232;stop-opacity:1;" />
      <stop
         id="stop30926-7-4"
         offset="1"
         style="stop-color:#ffffff;stop-opacity:1;" />
    </linearGradient>
    <linearGradient
       id="linearGradient30930-8-6">
      <stop
         id="stop30932-6-8"
         offset="0"
         style="stop-color:#7c7c7c;stop-opacity:1;" />
      <stop
         id="stop30934-3-6"
         offset="1"
         style="stop-color:#ffffff;stop-opacity:1;" />
    </linearGradient>
    <linearGradient
       id="linearGradient30944-7-7">
      <stop
         id="stop30946-0-2"
         offset="0"
         style="stop-color:#ffffff;stop-opacity:1;" />
      <stop
         id="stop30948-2-0"
         offset="1"
         style="stop-color:#7e7e7e;stop-opacity:1;" />
    </linearGradient>
    <linearGradient
       id="linearGradient6016-3-1">
      <stop
         id="stop6018-1-3"
         offset="0"
         style="stop-color:#265ba7;stop-opacity:1;" />
      <stop
         id="stop6020-4-8"
         offset="1"
         style="stop-color:#1c4177;stop-opacity:1;" />
    </linearGradient>
    <inkscape:perspective
       sodipodi:type="inkscape:persp3d"
       inkscape:vp_x="0 : 0.5 : 1"
       inkscape:vp_y="0 : 1000 : 0"
       inkscape:vp_z="1 : 0.5 : 1"
       inkscape:persp3d-origin="0.5 : 0.33333333 : 1"
       id="perspective2861-4-7" />
    <inkscape:perspective
       sodipodi:type="inkscape:persp3d"
       inkscape:vp_x="0 : 0.5 : 1"
       inkscape:vp_y="0 : 1000 : 0"
       inkscape:vp_z="1 : 0.5 : 1"
       inkscape:persp3d-origin="0.5 : 0.33333333 : 1"
       id="perspective3415-6-9" />
    <inkscape:perspective
       sodipodi:type="inkscape:persp3d"
       inkscape:vp_x="0 : 0.5 : 1"
       inkscape:vp_y="0 : 1000 : 0"
       inkscape:vp_z="1 : 0.5 : 1"
       inkscape:persp3d-origin="0.5 : 0.33333333 : 1"
       id="perspective3135-3-4" />
    <inkscape:perspective
       id="perspective29-6-1"
       inkscape:persp3d-origin="389.8085 : 56.692998 : 1"
       inkscape:vp_z="779.617 : 85.039497 : 1"
       inkscape:vp_y="0 : 1000 : 0"
       inkscape:vp_x="0 : 85.039497 : 1"
       sodipodi:type="inkscape:persp3d" />
    <linearGradient
       y2="382.5"
       x2="990"
       y1="382.5"
       x1="601.20001"
       gradientTransform="matrix(-0.511281,0,0,0.42455,1578.612,-1.981893e-7)"
       gradientUnits="userSpaceOnUse"
       id="linearGradient63059-9-1-7"
       xlink:href="#linearGradient7336-3-8-2"
       inkscape:collect="always" />
    <linearGradient
       y2="360"
       x2="990"
       y1="360"
       x1="380.92273"
       gradientTransform="matrix(-0.501192,0,0,0.42455,1568.625,-1.981893e-7)"
       gradientUnits="userSpaceOnUse"
       id="linearGradient63057-9-7-9"
       xlink:href="#linearGradient8221-3-1-1"
       inkscape:collect="always" />
    <linearGradient
       id="linearGradient7336-3-8-2">
      <stop
         id="stop7338-4-7-8"
         offset="0"
         style="stop-color:#ffffff;stop-opacity:1;" />
      <stop
         id="stop7340-5-9-4"
         offset="1"
         style="stop-color:#6fc1ff;stop-opacity:0;" />
    </linearGradient>
    <linearGradient
       id="linearGradient8221-3-1-1">
      <stop
         id="stop8223-8-6-9"
         offset="0"
         style="stop-color:#6fc1ff;stop-opacity:1;" />
      <stop
         id="stop8225-1-6-5"
         offset="1"
         style="stop-color:#6fc1ff;stop-opacity:0;" />
    </linearGradient>
    <linearGradient
       id="linearGradient57798-0-2-6">
      <stop
         id="stop57800-9-2-3"
         offset="0"
         style="stop-color:#ababab;stop-opacity:1;" />
      <stop
         id="stop57802-0-7-0"
         offset="1"
         style="stop-color:#000000;stop-opacity:0;" />
    </linearGradient>
    <linearGradient
       id="linearGradient57806-9-5-5">
      <stop
         style="stop-color:#ffffff;stop-opacity:1;"
         offset="0"
         id="stop57808-2-3-4" />
      <stop
         style="stop-color:#96bcd8;stop-opacity:0"
         offset="1"
         id="stop57810-4-2-4" />
    </linearGradient>
    <linearGradient
       id="linearGradient58210-2-5-6">
      <stop
         id="stop58212-6-7-8"
         offset="0"
         style="stop-color:#30a5ff;stop-opacity:1;" />
      <stop
         id="stop58214-1-3-6"
         offset="1"
         style="stop-color:#a6d9ff;stop-opacity:1;" />
    </linearGradient>
    <linearGradient
       id="linearGradient22774-6-4-7">
      <stop
         id="stop22776-6-5-6"
         offset="0"
         style="stop-color:#dd9144;stop-opacity:1;" />
      <stop
         style="stop-color:#b06f2e;stop-opacity:1;"
         offset="0"
         id="stop22784-0-9-3" />
      <stop
         style="stop-color:#633406;stop-opacity:1;"
         offset="1"
         id="stop22782-7-7-0" />
    </linearGradient>
    <linearGradient
       id="linearGradient22786-5-2-3">
      <stop
         id="stop22788-8-9-6"
         offset="0"
         style="stop-color:#737373;stop-opacity:1;" />
      <stop
         id="stop22790-8-9-2"
         offset="1"
         style="stop-color:#cdcdcd;stop-opacity:1;" />
    </linearGradient>
    <linearGradient
       id="linearGradient24542-5-8-7">
      <stop
         id="stop24544-6-2-2"
         offset="0"
         style="stop-color:#7c7c7c;stop-opacity:1;" />
      <stop
         id="stop24546-8-5-8"
         offset="1"
         style="stop-color:#323232;stop-opacity:1;" />
    </linearGradient>
    <linearGradient
       id="linearGradient30914-1-4-3">
      <stop
         id="stop30916-1-9-0"
         offset="0"
         style="stop-color:#545f00;stop-opacity:1;" />
      <stop
         id="stop30918-7-8-4"
         offset="1"
         style="stop-color:#000000;stop-opacity:1;" />
    </linearGradient>
    <linearGradient
       id="linearGradient30922-5-3-7">
      <stop
         id="stop30924-3-0-7"
         offset="0"
         style="stop-color:#323232;stop-opacity:1;" />
      <stop
         id="stop30926-0-7-7"
         offset="1"
         style="stop-color:#ffffff;stop-opacity:1;" />
    </linearGradient>
    <linearGradient
       id="linearGradient30930-0-3-0">
      <stop
         id="stop30932-5-8-9"
         offset="0"
         style="stop-color:#7c7c7c;stop-opacity:1;" />
      <stop
         id="stop30934-2-7-9"
         offset="1"
         style="stop-color:#ffffff;stop-opacity:1;" />
    </linearGradient>
    <linearGradient
       id="linearGradient30944-3-4-3">
      <stop
         id="stop30946-9-6-5"
         offset="0"
         style="stop-color:#ffffff;stop-opacity:1;" />
      <stop
         id="stop30948-1-3-3"
         offset="1"
         style="stop-color:#7e7e7e;stop-opacity:1;" />
    </linearGradient>
    <linearGradient
       id="linearGradient6016-8-8-1">
      <stop
         id="stop6018-7-0-7"
         offset="0"
         style="stop-color:#265ba7;stop-opacity:1;" />
      <stop
         id="stop6020-3-2-3"
         offset="1"
         style="stop-color:#1c4177;stop-opacity:1;" />
    </linearGradient>
    <linearGradient
       id="linearGradient6016-8-7">
      <stop
         style="stop-color:#265ba7;stop-opacity:1;"
         offset="0"
         id="stop6018-7-4" />
      <stop
         style="stop-color:#1c4177;stop-opacity:1;"
         offset="1"
         id="stop6020-3-8" />
    </linearGradient>
    <linearGradient
       id="linearGradient30944-3-0">
      <stop
         style="stop-color:#ffffff;stop-opacity:1;"
         offset="0"
         id="stop30946-9-4" />
      <stop
         style="stop-color:#7e7e7e;stop-opacity:1;"
         offset="1"
         id="stop30948-1-5" />
    </linearGradient>
    <linearGradient
       id="linearGradient30930-0-7">
      <stop
         style="stop-color:#7c7c7c;stop-opacity:1;"
         offset="0"
         id="stop30932-5-1" />
      <stop
         style="stop-color:#ffffff;stop-opacity:1;"
         offset="1"
         id="stop30934-2-1" />
    </linearGradient>
    <linearGradient
       id="linearGradient30922-5-2">
      <stop
         style="stop-color:#323232;stop-opacity:1;"
         offset="0"
         id="stop30924-3-2" />
      <stop
         style="stop-color:#ffffff;stop-opacity:1;"
         offset="1"
         id="stop30926-0-3" />
    </linearGradient>
    <linearGradient
       id="linearGradient30914-1-0">
      <stop
         style="stop-color:#545f00;stop-opacity:1;"
         offset="0"
         id="stop30916-1-4" />
      <stop
         style="stop-color:#000000;stop-opacity:1;"
         offset="1"
         id="stop30918-7-6" />
    </linearGradient>
    <linearGradient
       id="linearGradient24542-5-1">
      <stop
         style="stop-color:#7c7c7c;stop-opacity:1;"
         offset="0"
         id="stop24544-6-7" />
      <stop
         style="stop-color:#323232;stop-opacity:1;"
         offset="1"
         id="stop24546-8-2" />
    </linearGradient>
    <linearGradient
       id="linearGradient22786-5-7">
      <stop
         style="stop-color:#737373;stop-opacity:1;"
         offset="0"
         id="stop22788-8-5" />
      <stop
         style="stop-color:#cdcdcd;stop-opacity:1;"
         offset="1"
         id="stop22790-8-6" />
    </linearGradient>
    <linearGradient
       id="linearGradient22774-6-5">
      <stop
         style="stop-color:#dd9144;stop-opacity:1;"
         offset="0"
         id="stop22776-6-4" />
      <stop
         id="stop22784-0-6"
         offset="0"
         style="stop-color:#b06f2e;stop-opacity:1;" />
      <stop
         id="stop22782-7-6"
         offset="1"
         style="stop-color:#633406;stop-opacity:1;" />
    </linearGradient>
    <linearGradient
       id="linearGradient58210-2-2">
      <stop
         style="stop-color:#30a5ff;stop-opacity:1;"
         offset="0"
         id="stop58212-6-6" />
      <stop
         style="stop-color:#a6d9ff;stop-opacity:1;"
         offset="1"
         id="stop58214-1-7" />
    </linearGradient>
    <linearGradient
       id="linearGradient57806-9-2">
      <stop
         id="stop57808-2-1"
         offset="0"
         style="stop-color:#ffffff;stop-opacity:1;" />
      <stop
         id="stop57810-4-5"
         offset="1"
         style="stop-color:#96bcd8;stop-opacity:0" />
    </linearGradient>
    <linearGradient
       id="linearGradient57798-0-27">
      <stop
         style="stop-color:#ababab;stop-opacity:1;"
         offset="0"
         id="stop57800-9-9" />
      <stop
         style="stop-color:#000000;stop-opacity:0;"
         offset="1"
         id="stop57802-0-3" />
    </linearGradient>
    <linearGradient
       id="linearGradient8221-3-7">
      <stop
         style="stop-color:#6fc1ff;stop-opacity:1;"
         offset="0"
         id="stop8223-8-60" />
      <stop
         style="stop-color:#6fc1ff;stop-opacity:0;"
         offset="1"
         id="stop8225-1-1" />
    </linearGradient>
    <linearGradient
       id="linearGradient7336-3-0">
      <stop
         style="stop-color:#ffffff;stop-opacity:1;"
         offset="0"
         id="stop7338-4-75" />
      <stop
         style="stop-color:#6fc1ff;stop-opacity:0;"
         offset="1"
         id="stop7340-5-5" />
    </linearGradient>
    <linearGradient
       inkscape:collect="always"
       xlink:href="#linearGradient8221-3-7"
       id="linearGradient63057-9-3"
       gradientUnits="userSpaceOnUse"
       gradientTransform="matrix(-0.501192,0,0,0.42455,1568.625,-1.981893e-7)"
       x1="380.92273"
       y1="360"
       x2="990"
       y2="360" />
    <linearGradient
       inkscape:collect="always"
       xlink:href="#linearGradient7336-3-0"
       id="linearGradient63059-9-5"
       gradientUnits="userSpaceOnUse"
       gradientTransform="matrix(-0.511281,0,0,0.42455,1578.612,-1.981893e-7)"
       x1="601.20001"
       y1="382.5"
       x2="990"
       y2="382.5" />
    <inkscape:perspective
       sodipodi:type="inkscape:persp3d"
       inkscape:vp_x="0 : 85.039497 : 1"
       inkscape:vp_y="0 : 1000 : 0"
       inkscape:vp_z="779.617 : 85.039497 : 1"
       inkscape:persp3d-origin="389.8085 : 56.692998 : 1"
       id="perspective29-69" />
    <inkscape:perspective
       id="perspective3135-1"
       inkscape:persp3d-origin="0.5 : 0.33333333 : 1"
       inkscape:vp_z="1 : 0.5 : 1"
       inkscape:vp_y="0 : 1000 : 0"
       inkscape:vp_x="0 : 0.5 : 1"
       sodipodi:type="inkscape:persp3d" />
    <inkscape:perspective
       id="perspective3415-3"
       inkscape:persp3d-origin="0.5 : 0.33333333 : 1"
       inkscape:vp_z="1 : 0.5 : 1"
       inkscape:vp_y="0 : 1000 : 0"
       inkscape:vp_x="0 : 0.5 : 1"
       sodipodi:type="inkscape:persp3d" />
    <inkscape:perspective
       id="perspective2861-9"
       inkscape:persp3d-origin="0.5 : 0.33333333 : 1"
       inkscape:vp_z="1 : 0.5 : 1"
       inkscape:vp_y="0 : 1000 : 0"
       inkscape:vp_x="0 : 0.5 : 1"
       sodipodi:type="inkscape:persp3d" />
    <linearGradient
       id="linearGradient6016-1">
      <stop
         style="stop-color:#265ba7;stop-opacity:1;"
         offset="0"
         id="stop6018-3" />
      <stop
         style="stop-color:#1c4177;stop-opacity:1;"
         offset="1"
         id="stop6020-9" />
    </linearGradient>
    <linearGradient
       id="linearGradient30944-0">
      <stop
         style="stop-color:#ffffff;stop-opacity:1;"
         offset="0"
         id="stop30946-6" />
      <stop
         style="stop-color:#7e7e7e;stop-opacity:1;"
         offset="1"
         id="stop30948-7" />
    </linearGradient>
    <linearGradient
       id="linearGradient30930-00">
      <stop
         style="stop-color:#7c7c7c;stop-opacity:1;"
         offset="0"
         id="stop30932-8" />
      <stop
         style="stop-color:#ffffff;stop-opacity:1;"
         offset="1"
         id="stop30934-22" />
    </linearGradient>
    <linearGradient
       id="linearGradient30922-6">
      <stop
         style="stop-color:#323232;stop-opacity:1;"
         offset="0"
         id="stop30924-9" />
      <stop
         style="stop-color:#ffffff;stop-opacity:1;"
         offset="1"
         id="stop30926-5" />
    </linearGradient>
    <linearGradient
       id="linearGradient30914-4">
      <stop
         style="stop-color:#545f00;stop-opacity:1;"
         offset="0"
         id="stop30916-4" />
      <stop
         style="stop-color:#000000;stop-opacity:1;"
         offset="1"
         id="stop30918-6" />
    </linearGradient>
    <linearGradient
       id="linearGradient24542-9">
      <stop
         style="stop-color:#7c7c7c;stop-opacity:1;"
         offset="0"
         id="stop24544-0" />
      <stop
         style="stop-color:#323232;stop-opacity:1;"
         offset="1"
         id="stop24546-5" />
    </linearGradient>
    <linearGradient
       id="linearGradient22786-10">
      <stop
         style="stop-color:#737373;stop-opacity:1;"
         offset="0"
         id="stop22788-2" />
      <stop
         style="stop-color:#cdcdcd;stop-opacity:1;"
         offset="1"
         id="stop22790-2" />
    </linearGradient>
    <linearGradient
       id="linearGradient22774-7">
      <stop
         style="stop-color:#dd9144;stop-opacity:1;"
         offset="0"
         id="stop22776-3" />
      <stop
         id="stop22784-4"
         offset="0"
         style="stop-color:#b06f2e;stop-opacity:1;" />
      <stop
         id="stop22782-5"
         offset="1"
         style="stop-color:#633406;stop-opacity:1;" />
    </linearGradient>
    <linearGradient
       id="linearGradient58210-72">
      <stop
         style="stop-color:#30a5ff;stop-opacity:1;"
         offset="0"
         id="stop58212-68" />
      <stop
         style="stop-color:#a6d9ff;stop-opacity:1;"
         offset="1"
         id="stop58214-0" />
    </linearGradient>
    <linearGradient
       id="linearGradient57806-2">
      <stop
         id="stop57808-12"
         offset="0"
         style="stop-color:#ffffff;stop-opacity:1;" />
      <stop
         id="stop57810-9"
         offset="1"
         style="stop-color:#96bcd8;stop-opacity:0" />
    </linearGradient>
    <linearGradient
       id="linearGradient57798-1">
      <stop
         style="stop-color:#ababab;stop-opacity:1;"
         offset="0"
         id="stop57800-0" />
      <stop
         style="stop-color:#000000;stop-opacity:0;"
         offset="1"
         id="stop57802-2" />
    </linearGradient>
    <linearGradient
       id="linearGradient8221-38">
      <stop
         style="stop-color:#6fc1ff;stop-opacity:1;"
         offset="0"
         id="stop8223-2" />
      <stop
         style="stop-color:#6fc1ff;stop-opacity:0;"
         offset="1"
         id="stop8225-9" />
    </linearGradient>
    <linearGradient
       id="linearGradient7336-33">
      <stop
         style="stop-color:#ffffff;stop-opacity:1;"
         offset="0"
         id="stop7338-9" />
      <stop
         style="stop-color:#6fc1ff;stop-opacity:0;"
         offset="1"
         id="stop7340-1" />
    </linearGradient>
    <linearGradient
       inkscape:collect="always"
       xlink:href="#linearGradient8221-38"
       id="linearGradient63057-1"
       gradientUnits="userSpaceOnUse"
       gradientTransform="matrix(-0.501192,0,0,0.42455,1568.625,-1.981893e-7)"
       x1="380.92273"
       y1="360"
       x2="990"
       y2="360" />
    <linearGradient
       inkscape:collect="always"
       xlink:href="#linearGradient7336-33"
       id="linearGradient63059-6"
       gradientUnits="userSpaceOnUse"
       gradientTransform="matrix(-0.511281,0,0,0.42455,1578.612,-1.981893e-7)"
       x1="601.20001"
       y1="382.5"
       x2="990"
       y2="382.5" />
    <linearGradient
       gradientTransform="translate(287,-83)"
       gradientUnits="userSpaceOnUse"
       id="path1082_2_"
       y2="129.3468"
       x2="112.49853"
       y1="6.1372099"
       x1="112.49854">
      <stop
         offset="0"
         style="stop-color:#ffffff;stop-opacity:0"
         id="stop193" />
      <stop
         offset="1"
         style="stop-color:#ffffff;stop-opacity:0.27450982"
         id="stop195" />
      <midPointStop
         id="midPointStop197"
         style="stop-color:#FFFFFF"
         offset="0" />
      <midPointStop
         id="midPointStop199"
         style="stop-color:#FFFFFF"
         offset="0.5" />
      <midPointStop
         id="midPointStop201"
         style="stop-color:#000000"
         offset="1" />
    </linearGradient>
    <linearGradient
       gradientTransform="matrix(-0.3937741,0,0,0.393752,357.51969,122.00151)"
       gradientUnits="userSpaceOnUse"
       xlink:href="#path1082_2_"
       id="linearGradient2544"
       y2="303.14029"
       x2="606.91248"
       y1="104.50665"
       x1="541.33502" />
    <linearGradient
       id="linearGradient3388">
      <stop
         offset="0"
         style="stop-color:#000000;stop-opacity:0"
         id="stop3390" />
      <stop
         offset="1"
         style="stop-color:#000000;stop-opacity:0.37113401"
         id="stop3392" />
    </linearGradient>
    <linearGradient
       gradientTransform="matrix(0.749107,0,0,0.749107,-35.459862,91.44108)"
       gradientUnits="userSpaceOnUse"
       xlink:href="#linearGradient3388"
       id="linearGradient4416"
       y2="183.9644"
       x2="490.72305"
       y1="237.72447"
       x1="490.72305" />
  </defs>
  <sodipodi:namedview
     id="base"
     pagecolor="#ffffff"
     bordercolor="#666666"
     borderopacity="1.0"
     inkscape:pageopacity="0.0"
     inkscape:pageshadow="2"
     inkscape:zoom="15.763441"
     inkscape:cx="28.042571"
     inkscape:cy="16.874295"
     inkscape:document-units="px"
     inkscape:current-layer="layer1"
     showgrid="false"
     showguides="true"
     inkscape:guide-bbox="true"
     inkscape:snap-bbox="true"
     inkscape:snap-bbox-midpoints="true"
     inkscape:bbox-nodes="true"
     fit-margin-top="0"
     fit-margin-left="0"
     fit-margin-right="0"
     fit-margin-bottom="0"
     inkscape:bbox-paths="true"
     inkscape:snap-global="true"
     inkscape:window-width="1920"
     inkscape:window-height="1018"
     inkscape:window-x="1912"
     inkscape:window-y="-8"
     inkscape:window-maximized="1"
     inkscape:snap-bbox-edge-midpoints="true">
    <sodipodi:guide
       orientation="1,0"
       position="219,-114.19997"
       id="guide4673" />
    <sodipodi:guide
       orientation="1,0"
       position="228.125,-88.199968"
       id="guide4675" />
    <sodipodi:guide
       orientation="1,0"
       position="231.875,-132.57497"
       id="guide4677" />
    <sodipodi:guide
       orientation="1,0"
       position="234.125,-169.19997"
       id="guide4679" />
    <inkscape:grid
       type="xygrid"
       id="grid3474"
       empspacing="5"
       visible="true"
       enabled="true"
       snapvisiblegridlinesonly="true" />
  </sodipodi:namedview>
  <metadata
     id="metadata7">
    <rdf:RDF>
      <cc:Work
         rdf:about="">
        <dc:format>image/svg+xml</dc:format>
        <dc:type
           rdf:resource="http://purl.org/dc/dcmitype/StillImage" />
        <dc:title></dc:title>
      </cc:Work>
    </rdf:RDF>
  </metadata>
  <g
     inkscape:label="Layer 1"
     inkscape:groupmode="layer"
     id="layer1"
     transform="translate(822.24649,-589.1908)">
    <path
       style="fill:#222222;fill-opacity:1"
       d="M 16 0 C 7.16339 0 0 7.16317 0 16 C 0 24.83628 7.16339 32 16 32 C 24.83649 32 32 24.83616 32 16 C 32 7.16317 24.83649 0 16 0 z M 18.673828 4.3261719 L 24.888672 8 L 18.666016 11.673828 L 18.673828 4.3261719 z M 16 6.2148438 C 16.45584 6.2148438 16.901144 6.2516 17.339844 6.3125 L 17.339844 7.6738281 C 16.903554 7.6032581 16.45718 7.5625 16 7.5625 C 12.44597 7.5625 9.4069863 9.7401738 8.1601562 12.839844 L 7.0078125 12.160156 C 8.5047325 8.6705963 11.97091 6.2148438 16 6.2148438 z M 16 9.5410156 C 16.45644 9.5410156 16.903224 9.596 17.333984 9.6875 L 17.333984 11.070312 C 16.908874 10.956602 16.4615 10.896484 16 10.896484 C 13.66598 10.896484 11.716686 12.446582 11.103516 14.576172 L 9.9101562 13.867188 C 10.793726 11.353188 13.19352 9.5410156 16 9.5410156 z M 23.847656 10.160156 C 25.064676 11.791776 25.785156 13.8146 25.785156 16 C 25.785156 18.21946 25.037116 20.271576 23.785156 21.916016 L 22.625 21.228516 C 23.75978 19.791976 24.4375 17.97922 24.4375 16 C 24.4375 14.05795 23.78413 12.271166 22.6875 10.847656 L 23.847656 10.160156 z M 20.951172 11.875 C 21.888792 12.99648 22.458984 14.43339 22.458984 16 C 22.458984 17.602 21.864402 19.076484 20.888672 20.208984 L 19.701172 19.507812 C 20.569212 18.596193 21.103516 17.36707 21.103516 16 C 21.103516 14.67176 20.601354 13.46862 19.777344 12.5625 L 20.951172 11.875 z M 4.6738281 12.326172 L 10.888672 16 L 4.6660156 19.673828 L 4.6738281 12.326172 z M 11.103516 17.423828 C 11.716686 19.551748 13.66598 21.097656 16 21.097656 C 16.46159 21.097656 16.908764 21.035528 17.333984 20.923828 L 17.333984 22.3125 C 16.903224 22.40404 16.45644 22.458984 16 22.458984 C 13.19136 22.458984 10.791846 20.64207 9.9101562 18.125 L 11.103516 17.423828 z M 8.1601562 19.160156 C 9.4069863 22.259826 12.44597 24.4375 16 24.4375 C 16.45274 24.4375 16.893692 24.402284 17.326172 24.333984 L 17.326172 25.6875 C 16.892722 25.7478 16.45038 25.785156 16 25.785156 C 11.97091 25.785156 8.5047325 23.329424 7.0078125 19.839844 L 8.1601562 19.160156 z M 18.666016 20.445312 L 24.882812 24.111328 L 18.660156 27.785156 L 18.666016 20.445312 z "
       id="path3171-7-3-3-8-7-0-9-6-6"
       transform="translate(-822.24649,589.1908)" />
    <g
       id="g4568" />
  </g>
</svg>
