<?xml version="1.0" encoding="UTF-8" standalone="no"?>
<!-- Created with Inkscape (http://www.inkscape.org/) -->

<svg
   xmlns:dc="http://purl.org/dc/elements/1.1/"
   xmlns:cc="http://creativecommons.org/ns#"
   xmlns:rdf="http://www.w3.org/1999/02/22-rdf-syntax-ns#"
   xmlns:svg="http://www.w3.org/2000/svg"
   xmlns="http://www.w3.org/2000/svg"
   xmlns:sodipodi="http://sodipodi.sourceforge.net/DTD/sodipodi-0.dtd"
   xmlns:inkscape="http://www.inkscape.org/namespaces/inkscape"
   width="32"
   height="32"
   id="svg2"
   version="1.1"
   inkscape:version="0.48.4 r9939"
   sodipodi:docname="menu.svg"
   inkscape:export-filename="C:\Users\Julian Richen\Desktop\gol\assets\template\images\menu.png"
   inkscape:export-xdpi="90"
   inkscape:export-ydpi="90">
  <defs
     id="defs4" />
  <sodipodi:namedview
     id="base"
     pagecolor="#ffffff"
     bordercolor="#666666"
     borderopacity="1.0"
     inkscape:pageopacity="0.0"
     inkscape:pageshadow="2"
     inkscape:zoom="5.656854"
     inkscape:cx="3.155998"
     inkscape:cy="23.487413"
     inkscape:document-units="px"
     inkscape:current-layer="layer1"
     showgrid="false"
     inkscape:window-width="1920"
     inkscape:window-height="1058"
     inkscape:window-x="-8"
     inkscape:window-y="-8"
     inkscape:window-maximized="1"
     showguides="true"
     inkscape:guide-bbox="true" />
  <metadata
     id="metadata7">
    <rdf:RDF>
      <cc:Work
         rdf:about="">
        <dc:format>image/svg+xml</dc:format>
        <dc:type
           rdf:resource="http://purl.org/dc/dcmitype/StillImage" />
        <dc:title></dc:title>
      </cc:Work>
    </rdf:RDF>
  </metadata>
  <g
     inkscape:label="Layer 1"
     inkscape:groupmode="layer"
     id="layer1"
     transform="translate(0,-1020.3622)">
    <g
       id="g3001"
       transform="matrix(0.91428571,0,0,0.91428571,-12.8,96.602495)"
       style="fill:#ffffff">
      <rect
         inkscape:export-filename="M:\Inkscape\Menu Icons\menu-grey.png"
         inkscape:export-ydpi="41.139999"
         inkscape:export-xdpi="41.139999"
         y="1017.3622"
         x="14"
         height="5"
         width="35"
         id="rect2985"
         style="fill:#ffffff;fill-opacity:1;stroke:none" />
      <rect
         inkscape:export-ydpi="41.139999"
         inkscape:export-xdpi="41.139999"
         inkscape:export-filename="M:\Inkscape\Menu Icons\menu-grey.png"
         y="1025.3622"
         x="14"
         height="5"
         width="35"
         id="rect2985-7"
         style="fill:#ffffff;fill-opacity:1;stroke:none" />
      <rect
         inkscape:export-filename="M:\Inkscape\Menu Icons\menu-grey.png"
         inkscape:export-ydpi="41.139999"
         inkscape:export-xdpi="41.139999"
         y="1033.3622"
         x="14"
         height="5"
         width="35"
         id="rect2985-4"
         style="fill:#ffffff;fill-opacity:1;stroke:none" />
    </g>
  </g>
</svg>
