<?xml version="1.0" encoding="UTF-8" standalone="no"?>
<!-- Created with Inkscape (http://www.inkscape.org/) -->

<svg
   xmlns:dc="http://purl.org/dc/elements/1.1/"
   xmlns:cc="http://creativecommons.org/ns#"
   xmlns:rdf="http://www.w3.org/1999/02/22-rdf-syntax-ns#"
   xmlns:svg="http://www.w3.org/2000/svg"
   xmlns="http://www.w3.org/2000/svg"
   xmlns:sodipodi="http://sodipodi.sourceforge.net/DTD/sodipodi-0.dtd"
   xmlns:inkscape="http://www.inkscape.org/namespaces/inkscape"
   width="14"
   height="14"
   id="svg2"
   version="1.1"
   inkscape:version="0.48.4 r9939"
   sodipodi:docname="like.svg"
   inkscape:export-filename="C:\Users\Julian Richen\Desktop\gol\assets\template\images\comments\like.png"
   inkscape:export-xdpi="90"
   inkscape:export-ydpi="90">
  <defs
     id="defs4" />
  <sodipodi:namedview
     id="base"
     pagecolor="#ffffff"
     bordercolor="#666666"
     borderopacity="1.0"
     inkscape:pageopacity="0.0"
     inkscape:pageshadow="2"
     inkscape:zoom="44.8"
     inkscape:cx="7.9475307"
     inkscape:cy="6.2337676"
     inkscape:document-units="px"
     inkscape:current-layer="layer1"
     showgrid="false"
     inkscape:window-width="1920"
     inkscape:window-height="1018"
     inkscape:window-x="1912"
     inkscape:window-y="-8"
     inkscape:window-maximized="1"
     showguides="true"
     inkscape:guide-bbox="true">
    <sodipodi:guide
       orientation="1,0"
       position="0,0"
       id="guide3772" />
    <sodipodi:guide
       orientation="1,0"
       position="14,14"
       id="guide3776" />
    <sodipodi:guide
       orientation="0,1"
       position="0,0"
       id="guide3778" />
    <sodipodi:guide
       orientation="0,1"
       position="14,14"
       id="guide3782" />
    <sodipodi:guide
       orientation="1,0"
       position="7,0"
       id="guide2987" />
    <sodipodi:guide
       orientation="0,1"
       position="7.9391677,17.062108"
       id="guide3761" />
    <sodipodi:guide
       orientation="1,0"
       position="-3,0"
       id="guide3763" />
    <sodipodi:guide
       orientation="1,0"
       position="17,0"
       id="guide3765" />
    <sodipodi:guide
       orientation="0,1"
       position="6.3450207,5.8872953"
       id="guide3767" />
  </sodipodi:namedview>
  <metadata
     id="metadata7">
    <rdf:RDF>
      <cc:Work
         rdf:about="">
        <dc:format>image/svg+xml</dc:format>
        <dc:type
           rdf:resource="http://purl.org/dc/dcmitype/StillImage" />
        <dc:title></dc:title>
      </cc:Work>
    </rdf:RDF>
  </metadata>
  <g
     inkscape:label="Layer 1"
     inkscape:groupmode="layer"
     id="layer1"
     transform="translate(0,-1038.3622)">
    <path
       style="fill:#222222;fill-opacity:1;stroke:#222222;stroke-width:1px;stroke-linecap:butt;stroke-linejoin:miter;stroke-opacity:1"
       d="m 7,1041.9721 c -7,-6.672 -10,4.5162 -3e-7,8.9009 C 17,1046.4749 14,1035.3001 7,1041.9721 z"
       id="path2989"
       inkscape:connector-curvature="0"
       sodipodi:nodetypes="ccc" />
  </g>
</svg>
